-33300,12003
-33167,11956
-33033,11909
-32900,11861
-32766,11814
-32633,11766
-32499,11719
-32366,11672
-32232,11624
-32099,11577
-31965,11530
-31832,11482
-31698,11435
-31565,11388
-31431,11340
-31298,11293
-31165,11246
-31031,11198
-30898,11151
-30764,11104
-30631,11056
-30497,11009
-30364,10962
-30230,10914
-30097,10867
-29963,10820
-29830,10773
-29696,10725
-29563,10678
-29429,10631
-29296,10583
-29163,10536
-29029,10489
-28896,10442
-28762,10394
-28629,10347
-28495,10300
-28362,10253
-28228,10205
-28095,10158
-27961,10111
-27828,10064
-27694,10016
-27561,9969.3
-27427,9922
-27294,9874.8
-27161,9827.6
-27027,9780.4
-26894,9733.3
-26760,9686.1
-26627,9638.9
-26493,9591.7
-26360,9544.5
-26226,9497.4
-26093,9450.2
-25959,9403.1
-25826,9355.9
-25692,9308.8
-25559,9261.7
-25425,9214.5
-25292,9167.4
-25159,9120.3
-25025,9073.2
-24892,9026.1
-24758,8979
-24625,8931.9
-24491,8884.9
-24358,8837.8
-24224,8790.7
-24091,8743.7
-23957,8696.6
-23824,8649.6
-23690,8602.5
-23557,8555.5
-23423,8508.5
-23290,8461.5
-23157,8414.5
-23023,8367.5
-22890,8320.5
-22756,8273.5
-22623,8226.6
-22489,8179.6
-22356,8132.7
-22222,8085.7
-22089,8038.8
-21955,7991.9
-21822,7944.9
-21688,7898
-21555,7851.2
-21421,7804.3
-21288,7757.4
-21155,7710.5
-21021,7663.7
-20888,7616.9
-20754,7570
-20621,7523.2
-20487,7476.4
-20354,7429.6
-20220,7382.8
-20087,7336.1
-19953,7289.3
-19820,7242.6
-19686,7195.9
-19553,7149.1
-19419,7102.4
-19286,7055.8
-19153,7009.1
-19019,6962.4
-18886,6915.8
-18752,6869.2
-18619,6822.5
-18485,6775.9
-18352,6729.4
-18218,6682.8
-18085,6636.3
-17951,6589.7
-17818,6543.2
-17684,6496.7
-17551,6450.2
-17417,6403.8
-17284,6357.3
-17151,6310.9
-17017,6264.5
-16884,6218.1
-16750,6171.8
-16617,6125.4
-16483,6079.1
-16350,6032.8
-16216,5986.6
-16083,5940.3
-15949,5894.1
-15816,5847.9
-15682,5801.7
-15549,5755.6
-15415,5709.4
-15282,5663.4
-15148,5617.3
-15015,5571.2
-14882,5525.2
-14748,5479.2
-14615,5433.3
-14481,5387.4
-14348,5341.5
-14214,5295.6
-14081,5249.8
-13947,5204
-13814,5158.3
-13680,5112.6
-13547,5066.9
-13413,5021.2
-13280,4975.6
-13146,4930.1
-13013,4884.6
-12880,4839.1
-12746,4793.7
-12613,4748.3
-12479,4702.9
-12346,4657.6
-12212,4612.4
-12079,4567.2
-11945,4522.1
-11812,4477
-11678,4432
-11545,4387
-11411,4342.1
-11278,4297.2
-11144,4252.4
-11011,4207.7
-10878,4163.1
-10744,4118.5
-10611,4074
-10477,4029.5
-10344,3985.1
-10210,3940.9
-10077,3896.7
-9943.3,3852.5
-9809.8,3808.5
-9676.4,3764.6
-9542.9,3720.7
-9409.4,3677
-9276,3633.3
-9142.5,3589.8
-9009,3546.3
-8875.6,3503
-8742.1,3459.8
-8608.6,3416.7
-8475.2,3373.7
-8341.7,3330.9
-8208.2,3288.2
-8074.7,3245.6
-7941.3,3203.2
-7807.8,3161
-7674.3,3118.9
-7540.9,3076.9
-7407.4,3035.2
-7273.9,2993.6
-7140.5,2952.2
-7007,2911
-6873.5,2869.9
-6740.1,2829.2
-6606.6,2788.6
-6473.1,2748.2
-6339.7,2708.1
-6206.2,2668.3
-6072.7,2628.7
-5939.3,2589.4
-5805.8,2550.4
-5672.3,2511.6
-5538.9,2473.2
-5405.4,2435.1
-5271.9,2397.4
-5138.5,2360
-5005,2323.1
-4871.5,2286.5
-4738.1,2250.3
-4604.6,2214.6
-4471.1,2179.3
-4337.7,2144.5
-4204.2,2110.2
-4070.7,2076.4
-3937.3,2043.3
-3803.8,2010.6
-3670.3,1978.6
-3536.9,1947.3
-3403.4,1916.6
-3269.9,1886.7
-3136.5,1857.4
-3003,1829
-2869.5,1801.4
-2736.1,1774.6
-2602.6,1748.7
-2469.1,1723.8
-2335.7,1699.8
-2202.2,1676.9
-2068.7,1655
-1935.3,1634.2
-1801.8,1614.5
-1668.3,1596.1
-1534.9,1578.8
-1401.4,1562.9
-1267.9,1548.2
-1134.5,1534.9
-1001,1523
-867.54,1512.5
-734.07,1503.4
-600.6,1495.8
-467.13,1489.7
-333.67,1485.1
-200.2,1482
-66.733,1480.5
66.733,1480.5
200.2,1482
333.67,1485.1
467.13,1489.7
600.6,1495.8
734.07,1503.4
867.54,1512.5
1001,1523
1134.5,1534.9
1267.9,1548.2
1401.4,1562.9
1534.9,1578.8
1668.3,1596.1
1801.8,1614.5
1935.3,1634.2
2068.7,1655
2202.2,1676.9
2335.7,1699.8
2469.1,1723.8
2602.6,1748.7
2736.1,1774.6
2869.5,1801.4
3003,1829
3136.5,1857.4
3269.9,1886.7
3403.4,1916.6
3536.9,1947.3
3670.3,1978.6
3803.8,2010.6
3937.3,2043.3
4070.7,2076.4
4204.2,2110.2
4337.7,2144.5
4471.1,2179.3
4604.6,2214.6
4738.1,2250.3
4871.5,2286.5
5005,2323.1
5138.5,2360
5271.9,2397.4
5405.4,2435.1
5538.9,2473.2
5672.3,2511.6
5805.8,2550.4
5939.3,2589.4
6072.7,2628.7
6206.2,2668.3
6339.7,2708.1
6473.1,2748.2
6606.6,2788.6
6740.1,2829.2
6873.5,2869.9
7007,2911
7140.5,2952.2
7273.9,2993.6
7407.4,3035.2
7540.9,3076.9
7674.3,3118.9
7807.8,3161
7941.3,3203.2
8074.7,3245.6
8208.2,3288.2
8341.7,3330.9
8475.2,3373.7
8608.6,3416.7
8742.1,3459.8
8875.6,3503
9009,3546.3
9142.5,3589.8
9276,3633.3
9409.4,3677
9542.9,3720.7
9676.4,3764.6
9809.8,3808.5
9943.3,3852.5
10077,3896.7
10210,3940.9
10344,3985.1
10477,4029.5
10611,4074
10744,4118.5
10878,4163.1
11011,4207.7
11144,4252.4
11278,4297.2
11411,4342.1
11545,4387
11678,4432
11812,4477
11945,4522.1
12079,4567.2
12212,4612.4
12346,4657.6
12479,4702.9
12613,4748.3
12746,4793.7
12880,4839.1
13013,4884.6
13146,4930.1
13280,4975.6
13413,5021.2
13547,5066.9
13680,5112.6
13814,5158.3
13947,5204
14081,5249.8
14214,5295.6
14348,5341.5
14481,5387.4
14615,5433.3
14748,5479.2
14882,5525.2
15015,5571.2
15148,5617.3
15282,5663.4
15415,5709.4
15549,5755.6
15682,5801.7
15816,5847.9
15949,5894.1
16083,5940.3
16216,5986.6
16350,6032.8
16483,6079.1
16617,6125.4
16750,6171.8
16884,6218.1
17017,6264.5
17151,6310.9
17284,6357.3
17417,6403.8
17551,6450.2
17684,6496.7
17818,6543.2
17951,6589.7
18085,6636.3
18218,6682.8
18352,6729.4
18485,6775.9
18619,6822.5
18752,6869.2
18886,6915.8
19019,6962.4
19153,7009.1
19286,7055.8
19419,7102.4
19553,7149.1
19686,7195.9
19820,7242.6
19953,7289.3
20087,7336.1
20220,7382.8
20354,7429.6
20487,7476.4
20621,7523.2
20754,7570
20888,7616.9
21021,7663.7
21155,7710.5
21288,7757.4
21421,7804.3
21555,7851.2
21688,7898
21822,7944.9
21955,7991.9
22089,8038.8
22222,8085.7
22356,8132.7
22489,8179.6
22623,8226.6
22756,8273.5
22890,8320.5
23023,8367.5
23157,8414.5
23290,8461.5
23423,8508.5
23557,8555.5
23690,8602.5
23824,8649.6
23957,8696.6
24091,8743.7
24224,8790.7
24358,8837.8
24491,8884.9
24625,8931.9
24758,8979
24892,9026.1
25025,9073.2
25159,9120.3
25292,9167.4
25425,9214.5
25559,9261.7
25692,9308.8
25826,9355.9
25959,9403.1
26093,9450.2
26226,9497.4
26360,9544.5
26493,9591.7
26627,9638.9
26760,9686.1
26894,9733.3
27027,9780.4
27161,9827.6
27294,9874.8
27427,9922
27561,9969.3
27694,10016
27828,10064
27961,10111
28095,10158
28228,10205
28362,10253
28495,10300
28629,10347
28762,10394
28896,10442
29029,10489
29163,10536
29296,10583
29429,10631
29563,10678
29696,10725
29830,10773
29963,10820
30097,10867
30230,10914
30364,10962
30497,11009
30631,11056
30764,11104
30898,11151
31031,11198
31165,11246
31298,11293
31431,11340
31565,11388
31698,11435
31832,11482
31965,11530
32099,11577
32232,11624
32366,11672
32499,11719
32633,11766
32766,11814
32900,11861
33033,11909
33167,11956
33300,12003
